﻿62f1f542-f093-4ac0-a858-616d27c240df-->und\62f1f542-f093-4ac0-a858-616d27c240df
62f1f542-f093-4ac0-a858-616d27c240df.0-->und\62f1f542-f093-4ac0-a858-616d27c240df.0
70e297e0-e8a2-43bf-8be1-62e408f610a1-->und\70e297e0-e8a2-43bf-8be1-62e408f610a1
70e297e0-e8a2-43bf-8be1-62e408f610a1.0-->und\70e297e0-e8a2-43bf-8be1-62e408f610a1.0
79a499cc-1782-4a2f-abe7-61ea4d49fd5a-->und\79a499cc-1782-4a2f-abe7-61ea4d49fd5a
8aa13ab8-188a-4f59-be4f-031aa5450c90.0\info-->und\8aa13ab8-188a-4f59-be4f-031aa5450c90.0\info
8aa13ab8-188a-4f59-be4f-031aa5450c90.0\text-->ObjectModule.bsl
copyinfo-->und\copyinfo
root-->und\root
version-->und\version
versions-->und\versions
